{
   "tracks": {
      "href": "https://api.spotify.com/v1/search?query=isn%27t+Lovely&type=track&offset=0&limit=1",
      "items": [
         {
            "album": {
               "album_type": "album",
               "artists": [
                  {
                     "external_urls": {
                        "spotify": "https://open.spotify.com/artist/17Cit7wNuKM6q67MwLH6gD"
                     },
                     "href": "https://api.spotify.com/v1/artists/17Cit7wNuKM6q67MwLH6gD",
                     "id": "17Cit7wNuKM6q67MwLH6gD",
                     "name": "Ethan Jewell",
                     "type": "artist",
                     "uri": "spotify:artist:17Cit7wNuKM6q67MwLH6gD"
                  }
               ],
               "external_urls": {
                  "spotify": "https://open.spotify.com/album/0FCCtuj1mPIoK7ezbNooB6"
               },
               "href": "https://api.spotify.com/v1/albums/0FCCtuj1mPIoK7ezbNooB6",
               "id": "0FCCtuj1mPIoK7ezbNooB6",
               "images": [
                  {
                     "height": 640,
                     "url": "https://i.scdn.co/image/ab67616d0000b273356d59de7b1388f87fb17809",
                     "width": 640
                  },
                  {
                     "height": 300,
                     "url": "https://i.scdn.co/image/ab67616d00001e02356d59de7b1388f87fb17809",
                     "width": 300
                  },
                  {
                     "height": 64,
                     "url": "https://i.scdn.co/image/ab67616d00004851356d59de7b1388f87fb17809",
                     "width": 64
                  }
               ],
               "name": "loneliness in the presence of company",
               "release_date": "2021-11-12",
               "release_date_precision": "day",
               "total_tracks": 16,
               "type": "album",
               "uri": "spotify:album:0FCCtuj1mPIoK7ezbNooB6"
            },
            "artists": [
               {
                  "external_urls": {
                     "spotify": "https://open.spotify.com/artist/17Cit7wNuKM6q67MwLH6gD"
                  },
                  "href": "https://api.spotify.com/v1/artists/17Cit7wNuKM6q67MwLH6gD",
                  "id": "17Cit7wNuKM6q67MwLH6gD",
                  "name": "Ethan Jewell",
                  "type": "artist",
                  "uri": "spotify:artist:17Cit7wNuKM6q67MwLH6gD"
               }
            ],
            
            "disc_number": 1,
            "duration_ms": 99584,
            "explicit": false,
            "external_ids": {
               "isrc": "QZNWU2105439"
            },
            "external_urls": {
               "spotify": "https://open.spotify.com/track/2k68uRQSxsiaieIwFePlE1"
            },
            "href": "https://api.spotify.com/v1/tracks/2k68uRQSxsiaieIwFePlE1",
            "id": "2k68uRQSxsiaieIwFePlE1",
            "is_local": false,
            "name": "But it isn't lonely at all (Outro)",
            "popularity": 23,
            "preview_url": "https://p.scdn.co/mp3-preview/dba289d778caedb3ee6f0c9ba8ab79be9800bfaf?cid=93dfe93f21fb46aaad10947eadfde562",
            "track_number": 16,
            "type": "track",
            "uri": "spotify:track:2k68uRQSxsiaieIwFePlE1"
         }
      ],
      "limit": 1,
      "next": "https://api.spotify.com/v1/search?query=isn%27t+Lovely&type=track&offset=1&limit=1",
      "offset": 0,
      "previous": null,
      "total": 801
   }
}